%YAML 1.1
%TAG !u! tag:unity3d.com,2011:
--- !u!114 &9219712645307711397
MonoBehaviour:
  m_ObjectHideFlags: 0
  m_CorrespondingSourceObject: {fileID: 0}
  m_PrefabInstance: {fileID: 0}
  m_PrefabAsset: {fileID: 0}
  m_GameObject: {fileID: 3032482036342736449}
  m_Enabled: 1
  m_EditorHideFlags: 0
  m_Script: {fileID: 11500000, guid: f7a5a22aa7a06ed4aacb94e500f32177, type: 3}
  m_Name: 
  m_EditorClassIdentifier: 
  myId: 0
  speed: 0
  sprayRange: 0
  sprayPower: 0
  ParticleSystem: {fileID: 5494979369872558899}
  FilterColor: {r: 0, g: 0, b: 0, a: 0}
  colorSet: 0
  parentGO: {fileID: 7570809861421529444}
  SprayClips:
  - {fileID: 8300000, guid: e722f9ddd2b37964c8959d05ad570922, type: 3}
  - {fileID: 8300000, guid: 02b2890dc67d5594f900060552e7aa39, type: 3}
  - {fileID: 8300000, guid: 416db9393135ae349a5d01cd1cc71d3d, type: 3}
  - {fileID: 8300000, guid: b63330aa97940f143843c0df47feb1e5, type: 3}
  - {fileID: 8300000, guid: 0203d4981c940b146a4bff9a5fe6cc38, type: 3}
  - {fileID: 8300000, guid: d990da26f5773b24eaa8b2b7a7ff9a43, type: 3}
  - {fileID: 8300000, guid: fff8142bf56d9f14cbce3b451119614e, type: 3}
  - {fileID: 8300000, guid: 540244a74f96cd44fb62c35d163353eb, type: 3}
  - {fileID: 8300000, guid: 3b3f71a304797d24ab3df7ac0fe5adf3, type: 3}
  - {fileID: 8300000, guid: 12af3d5497c00d444a90e68a08730a43, type: 3}
  - {fileID: 8300000, guid: 5efce5fbbb0f59f4ea32e9b159076d5d, type: 3}
  source: {fileID: 2781769304230295869}
--- !u!82 &2781769304230295869
AudioSource:
  m_ObjectHideFlags: 0
  m_CorrespondingSourceObject: {fileID: 0}
  m_PrefabInstance: {fileID: 0}
  m_PrefabAsset: {fileID: 0}
  m_GameObject: {fileID: 3032482036342736449}
  m_Enabled: 1
  serializedVersion: 4
  OutputAudioMixerGroup: {fileID: 0}
  m_audioClip: {fileID: 0}
  m_PlayOnAwake: 1
  m_Volume: 1
  m_Pitch: 1
  Loop: 0
  Mute: 0
  Spatialize: 0
  SpatializePostEffects: 0
  Priority: 128
  DopplerLevel: 1
  MinDistance: 1
  MaxDistance: 500
  Pan2D: 0
  rolloffMode: 0
  BypassEffects: 0
  BypassListenerEffects: 0
  BypassReverbZones: 0
  rolloffCustomCurve:
    serializedVersion: 2
    m_Curve:
    - serializedVersion: 3
      time: 0
      value: 1
      inSlope: 0
      outSlope: 0
      tangentMode: 0
      weightedMode: 0
      inWeight: 0.33333334
      outWeight: 0.33333334
    - serializedVersion: 3
      time: 1
      value: 0
      inSlope: 0
      outSlope: 0
      tangentMode: 0
      weightedMode: 0
      inWeight: 0.33333334
      outWeight: 0.33333334
    m_PreInfinity: 2
    m_PostInfinity: 2
    m_RotationOrder: 4
  panLevelCustomCurve:
    serializedVersion: 2
    m_Curve:
    - serializedVersion: 3
      time: 0
      value: 0
      inSlope: 0
      outSlope: 0
      tangentMode: 0
      weightedMode: 0
      inWeight: 0.33333334
      outWeight: 0.33333334
    m_PreInfinity: 2
    m_PostInfinity: 2
    m_RotationOrder: 4
  spreadCustomCurve:
    serializedVersion: 2
    m_Curve:
    - serializedVersion: 3
      time: 0
      value: 0
      inSlope: 0
      outSlope: 0
      tangentMode: 0
      weightedMode: 0
      inWeight: 0.33333334
      outWeight: 0.33333334
    m_PreInfinity: 2
    m_PostInfinity: 2
    m_RotationOrder: 4
  reverbZoneMixCustomCurve:
    serializedVersion: 2
    m_Curve:
    - serializedVersion: 3
      time: 0
      value: 1
      inSlope: 0
      outSlope: 0
      tangentMode: 0
      weightedMode: 0
      inWeight: 0.33333334
      outWeight: 0.33333334
    m_PreInfinity: 2
    m_PostInfinity: 2
    m_RotationOrder: 4
--- !u!1001 &1814429631031056880
PrefabInstance:
  m_ObjectHideFlags: 0
  serializedVersion: 2
  m_Modification:
    m_TransformParent: {fileID: 0}
    m_Modifications:
    - target: {fileID: 8088127758099636370, guid: 67d5d139f69286f499d29f0391c3b57c,
        type: 3}
      propertyPath: m_LocalPosition.x
      value: 3.32
      objectReference: {fileID: 0}
    - target: {fileID: 8088127758099636370, guid: 67d5d139f69286f499d29f0391c3b57c,
        type: 3}
      propertyPath: m_LocalPosition.y
      value: 1
      objectReference: {fileID: 0}
    - target: {fileID: 8088127758099636370, guid: 67d5d139f69286f499d29f0391c3b57c,
        type: 3}
      propertyPath: m_LocalPosition.z
      value: -4.29
      objectReference: {fileID: 0}
    - target: {fileID: 8088127758099636370, guid: 67d5d139f69286f499d29f0391c3b57c,
        type: 3}
      propertyPath: m_LocalRotation.x
      value: 0
      objectReference: {fileID: 0}
    - target: {fileID: 8088127758099636370, guid: 67d5d139f69286f499d29f0391c3b57c,
        type: 3}
      propertyPath: m_LocalRotation.y
      value: 0
      objectReference: {fileID: 0}
    - target: {fileID: 8088127758099636370, guid: 67d5d139f69286f499d29f0391c3b57c,
        type: 3}
      propertyPath: m_LocalRotation.z
      value: 0
      objectReference: {fileID: 0}
    - target: {fileID: 8088127758099636370, guid: 67d5d139f69286f499d29f0391c3b57c,
        type: 3}
      propertyPath: m_LocalRotation.w
      value: 1
      objectReference: {fileID: 0}
    - target: {fileID: 8088127758099636370, guid: 67d5d139f69286f499d29f0391c3b57c,
        type: 3}
      propertyPath: m_RootOrder
      value: 0
      objectReference: {fileID: 0}
    - target: {fileID: 8088127758099636370, guid: 67d5d139f69286f499d29f0391c3b57c,
        type: 3}
      propertyPath: m_LocalEulerAnglesHint.x
      value: 0
      objectReference: {fileID: 0}
    - target: {fileID: 8088127758099636370, guid: 67d5d139f69286f499d29f0391c3b57c,
        type: 3}
      propertyPath: m_LocalEulerAnglesHint.y
      value: 0
      objectReference: {fileID: 0}
    - target: {fileID: 8088127758099636370, guid: 67d5d139f69286f499d29f0391c3b57c,
        type: 3}
      propertyPath: m_LocalEulerAnglesHint.z
      value: 0
      objectReference: {fileID: 0}
    - target: {fileID: 8088127758099636372, guid: 67d5d139f69286f499d29f0391c3b57c,
        type: 3}
      propertyPath: m_Name
      value: FarAwayMonster
      objectReference: {fileID: 0}
    m_RemovedComponents:
    - {fileID: 8088127758099636375, guid: 67d5d139f69286f499d29f0391c3b57c, type: 3}
    - {fileID: 767484619796157655, guid: 67d5d139f69286f499d29f0391c3b57c, type: 3}
  m_SourcePrefab: {fileID: 100100000, guid: 67d5d139f69286f499d29f0391c3b57c, type: 3}
--- !u!1 &7570809861421529444 stripped
GameObject:
  m_CorrespondingSourceObject: {fileID: 8088127758099636372, guid: 67d5d139f69286f499d29f0391c3b57c,
    type: 3}
  m_PrefabInstance: {fileID: 1814429631031056880}
  m_PrefabAsset: {fileID: 0}
--- !u!1 &3032482036342736449 stripped
GameObject:
  m_CorrespondingSourceObject: {fileID: 3691733962641301425, guid: 67d5d139f69286f499d29f0391c3b57c,
    type: 3}
  m_PrefabInstance: {fileID: 1814429631031056880}
  m_PrefabAsset: {fileID: 0}
--- !u!1 &5494979369872558899 stripped
GameObject:
  m_CorrespondingSourceObject: {fileID: 6155348380472447683, guid: 67d5d139f69286f499d29f0391c3b57c,
    type: 3}
  m_PrefabInstance: {fileID: 1814429631031056880}
  m_PrefabAsset: {fileID: 0}
